MATH167R - MATH167R: Data visualization
…
n_eggs
double
number of eggs producing eggs for a given month-type-process combo

source
character
Original USDA report from which data are sourced. Values correspond to titles of PDF reports. Date of report is included in title.

Building up a visualization

eggproduction |> 
  filter(prod_type == "table eggs") 

# A tibble: 165 × 6
   observed_month prod_type  prod_process    n_hens     n_eggs source           
   <date>         <chr>      <chr>            <dbl>      <dbl> <chr>            
 1 2016-07-31     table eggs all          299669000 7350500000 ChicEggs-09-23-2…
 2 2016-08-31     table eggs all          300917000 7409000000 ChicEggs-10-21-2…
 3 2016-09-30     table eggs all          303270000 7204200000 ChicEggs-11-22-2…
 4 2016-10-31     table eggs all          305852000 7534700000 ChicEggs-12-23-2…
 5 2016-11-30     table eggs all          310728000 7468500000 ChicEggs-01-24-2…
 6 2016-12-31     table eggs all          318820000 7950400000 ChicEggs-02-28-2…
 7 2017-01-31     table eggs all          318109000 7903500000 ChicEggs-03-21-2…
 8 2017-02-28     table eggs all          316807000 7079800000 ChicEggs-04-21-2…
 9 2017-03-31     table eggs all          316147000 7842000000 ChicEggs-05-22-2…
10 2017-04-30     table eggs all          314918000 7545900000 ChicEggs-06-23-2…
# ℹ 155 more rows
…
Example: pivot_longer()

relig_income |>
  pivot_longer(!religion, names_to = "income", values_to = "count")

# A tibble: 180 × 3
   religion income             count
   <chr>    <chr>              <dbl>
 1 Agnostic <$10k                 27
 2 Agnostic $10-20k               34
 3 Agnostic $20-30k               60
 4 Agnostic $30-40k               81
 5 Agnostic $40-50k               76
 6 Agnostic $50-75k              137
 7 Agnostic $75-100k             122
 8 Agnostic $100-150k            109
 9 Agnostic >150k                 84
10 Agnostic Don't know/refused    96
# ℹ 170 more rows

Example: pivot_longer()

billboard

# A tibble: 317 × 79
   artist     track date.entered   wk1   wk2   wk3   wk4   wk5   wk6   wk7   wk8
   <chr>      <chr> <date>       <dbl> <dbl> <dbl> <dbl> <dbl> <dbl> <dbl> <dbl>
 1 2 Pac      Baby… 2000-02-26      87    82    72    77    87    94    99    NA
 2 2Ge+her    The … 2000-09-02      91    87    92    NA    NA    NA    NA    NA
 3 3 Doors D… Kryp… 2000-04-08      81    70    68    67    66    57    54    53
 4 3 Doors D… Loser 2000-10-21      76    76    72    69    67    65    55    59
 5 504 Boyz   Wobb… 2000-04-15      57    34    25    17    17    31    36    49
 6 98^0       Give… 2000-08-19      51    39    34    26    26    19     2     2
 7 A*Teens    Danc… 2000-07-08      97    97    96    95   100    NA    NA    NA
 8 Aaliyah    I Do… 2000-01-29      84    62    51    41    38    35    35    38
 9 Aaliyah    Try … 2000-03-18      59    53    38    28    21    18    16    14
10 Adams, Yo… Open… 2000-08-26      76    76    74    69    68    67    61    58
# ℹ 307 more rows
# ℹ 68 more variables: wk9 <dbl>, wk10 <dbl>, wk11 <dbl>, wk12 <dbl>,
#   wk13 <dbl>, wk14 <dbl>, wk15 <dbl>, wk16 <dbl>, wk17 <dbl>, wk18 <dbl>,
#   wk19 <dbl>, wk20 <dbl>, wk21 <dbl>, wk22 <dbl>, wk23 <dbl>, wk24 <dbl>,
#   wk25 <dbl>, wk26 <dbl>, wk27 <dbl>, wk28 <dbl>, wk29 <dbl>, wk30 <dbl>,
#   wk31 <dbl>, wk32 <dbl>, wk33 <dbl>, wk34 <dbl>, wk35 <dbl>, wk36 <dbl>,
#   wk37 <dbl>, wk38 <dbl>, wk39 <dbl>, wk40 <dbl>, wk41 <dbl>, wk42 <dbl>, …

Example: pivot_longer()

billboard |>
  pivot_longer(
    cols = starts_with("wk"),
    names_to = "week",
    names_prefix = "wk",
    values_to = "rank",
    values_drop_na = TRUE
  )

# A tibble: 5,307 × 5
   artist  track                   date.entered week   rank
   <chr>   <chr>                   <date>       <chr> <dbl>
 1 2 Pac   Baby Don't Cry (Keep... 2000-02-26   1        87
 2 2 Pac   Baby Don't Cry (Keep... 2000-02-26   2        82
 3 2 Pac   Baby Don't Cry (Keep... 2000-02-26   3        72
 4 2 Pac   Baby Don't Cry (Keep... 2000-02-26   4        77
 5 2 Pac   Baby Don't Cry (Keep... 2000-02-26   5        87
 6 2 Pac   Baby Don't Cry (Keep... 2000-02-26   6        94
 7 2 Pac   Baby Don't Cry (Keep... 2000-02-26   7        99
 8 2Ge+her The Hardest Part Of ... 2000-09-02   1        91
 9 2Ge+her The Hardest Part Of ... 2000-09-02   2        87
10 2Ge+her The Hardest Part Of ... 2000-09-02   3        92
# ℹ 5,297 more rows

Example: pivot_wider()

fish_encounters

# A tibble: 114 × 3
   fish  station  seen
   <fct> <fct>   <int>
 1 4842  Release     1
 2 4842  I80_1       1
 3 4842  Lisbon      1
 4 4842  Rstr        1
 5 4842  Base_TD     1
 6 4842  BCE         1
 7 4842  BCW         1
 8 4842  BCE2        1
 9 4842  BCW2        1
10 4842  MAE         1
# ℹ 104 more rows
…
Example: pivot_wider()

us_rent_income

# A tibble: 104 × 5
   GEOID NAME       variable estimate   moe
   <chr> <chr>      <chr>       <dbl> <dbl>
 1 01    Alabama    income      24476   136
 2 01    Alabama    rent          747     3
 3 02    Alaska     income      32940   508
 4 02    Alaska     rent         1200    13
 5 04    Arizona    income      27517   148
 6 04    Arizona    rent          972     4
 7 05    Arkansas   income      23789   165
 8 05    Arkansas   rent          709     5
 9 06    California income      29454   109
10 06    California rent         1358     3
# ℹ 94 more rows

Example: pivot_wider()

us_rent_income |>
  pivot_wider(
    names_from = variable,
    values_from = c(estimate, moe)
  )

# A tibble: 52 × 6
   GEOID NAME                 estimate_income estimate_rent moe_income moe_rent
   <chr> <chr>                          <dbl>         <dbl>      <dbl>    <dbl>
 1 01    Alabama                        24476           747        136        3
 2 02    Alaska                         32940          1200        508       13
 3 04    Arizona                        27517           972        148        4
 4 05    Arkansas                       23789           709        165        5
 5 06    California                     29454          1358        109        3
 6 08    Colorado                       32401          1125        109        5
 7 09    Connecticut                    35326          1123        195        5
 8 10    Delaware                       31560          1076        247       10
 9 11    District of Columbia           43198          1424        681       17
10 12    Florida                        25952          1077         70        3
# ℹ 42 more rows
