MATH167R - MATH167R: Merging data
…
What does the following code do?

pivot_wider(ChickWeight,
             names_from = "Time", 
             values_from = "weight")

Warm-up

library(tidyverse)
pivot_wider(ChickWeight,
            names_from = "Time", 
            values_from = "weight")

# A tibble: 50 × 14
   Chick Diet    `0`   `2`   `4`   `6`   `8`  `10`  `12`  `14`  `16`  `18`  `20`
   <ord> <fct> <dbl> <dbl> <dbl> <dbl> <dbl> <dbl> <dbl> <dbl> <dbl> <dbl> <dbl>
 1 1     1        42    51    59    64    76    93   106   125   149   171   199
 2 2     1        40    49    58    72    84   103   122   138   162   187   209
 3 3     1        43    39    55    67    84    99   115   138   163   187   198
 4 4     1        42    49    56    67    74    87   102   108   136   154   160
 5 5     1        41    42    48    60    79   106   141   164   197   199   220
 6 6     1        41    49    59    74    97   124   141   148   155   160   160
 7 7     1        41    49    57    71    89   112   146   174   218   250   288
 8 8     1        42    50    61    71    84    93   110   116   126   134   125
 9 9     1        42    51    59    68    85    96    90    92    93   100   100
10 10    1        41    44    52    63    74    81    89    96   101   112   120
# ℹ 40 more rows
# ℹ 1 more variable: `21` <dbl>
…
